People Analytics con R
…
```
## # A tibble: 1,452 x 3
##       id personaje          puntaje
##    <int> <chr>                <dbl>
##  1     1 Facha de Keanu          10
##  2     1 Copadez de Keanu        10
##  3     1 Facha de Russell         7
##  4     1 Copadez de Russell      10
##  5     1 Facha de Nico            1
##  6     1 Copadez de Nico          1
##  7     1 Facha de Roberto         1
##  8     1 Copadez de Roberto       1
##  9     1 Facha de Jeff            5
## 10     1 Copadez de Jeff          5
## # ... with 1,442 more rows
```

<img src="humanosReales2021_files/figure-html/knn-1.png" width="504" />

```
## # A tibble: 1,452 x 4
##       id metrica persona puntaje
##    <int> <chr>   <chr>     <dbl>
##  1     1 Facha   Keanu        10
##  2     1 Copadez Keanu        10
##  3     1 Facha   Russell       7
##  4     1 Copadez Russell      10
##  5     1 Facha   Nico          1
##  6     1 Copadez Nico          1
##  7     1 Facha   Roberto       1
##  8     1 Copadez Roberto       1
##  9     1 Facha   Jeff          5
## 10     1 Copadez Jeff          5
## # ... with 1,442 more rows
```

```
## # A tibble: 726 x 4
##       id persona Facha Copadez
##    <int> <chr>   <dbl>   <dbl>
##  1     1 Keanu      10      10
##  2     1 Russell     7      10
##  3     1 Nico        1       1
##  4     1 Roberto     1       1
##  5     1 Jeff        5       5
##  6     1 Brad       10      10
##  7     1 Mono       10      10
##  8     1 Sergio     10      10
##  9     1 Ricky      10      10
## 10     1 Ben         8       8
## # ... with 716 more rows
```
…
